…
diabetes
```

    ## # A tibble: 253,680 × 22
    ##    Diabetes   HighBP HighChol CholCheck   BMI Smoker Stroke HeartDiseaseorAttack
    ##    <fct>      <fct>  <fct>    <fct>     <dbl> <fct>  <fct>  <fct>               
    ##  1 No Diabet… High … High Ch… Chol Che…    40 Yes    No     No                  
    ##  2 No Diabet… No Hi… No High… No Chol …    25 Yes    No     No                  
    ##  3 No Diabet… High … High Ch… Chol Che…    28 No     No     No                  
    ##  4 No Diabet… High … No High… Chol Che…    27 No     No     No                  
    ##  5 No Diabet… High … High Ch… Chol Che…    24 No     No     No                  
    ##  6 No Diabet… High … High Ch… Chol Che…    25 Yes    No     No                  
    ##  7 No Diabet… High … No High… Chol Che…    30 Yes    No     No                  
    ##  8 No Diabet… High … High Ch… Chol Che…    25 Yes    No     No                  
    ##  9 Diabetes … High … High Ch… Chol Che…    30 Yes    No     Yes                 
    ## 10 No Diabet… No Hi… No High… Chol Che…    24 No     No     No                  
    ## # ℹ 253,670 more rows
    ## # ℹ 14 more variables: PhysActivity <fct>, Fruits <fct>, Veggies <fct>,
    ## #   HvyAlcoholConsump <fct>, AnyHealthcare <fct>, NoDocbcCost <fct>,
    ## #   GenHlth <fct>, MentHlth <dbl>, PhysHlth <dbl>, DiffWalk <fct>, Sex <fct>,
    ## #   Age <fct>, Education <fct>, Income <fct>
…
