…
Next, we filter the data for the education level: College Graduate.
Here’s the final data frame.

``` r
edu_data <- filter(diabetes, Education == params$edu_level)
edu_data
```

    ## # A tibble: 107,325 × 22
    ##    Diabetes    HighBP HighChol CholCheck   BMI Smoker Stroke HeartDiseaseorAttack PhysActivity
    ##    <fct>       <fct>  <fct>    <fct>     <dbl> <fct>  <fct>  <fct>                <fct>       
    ##  1 No_Diabetes No Hi… No High… No Chol …    25 Yes    No     No                   Yes         
    ##  2 No_Diabetes High … High Ch… Chol Che…    25 Yes    No     No                   Yes         
    ##  3 No_Diabetes High … No High… Chol Che…    30 Yes    No     No                   No          
    ##  4 Diabetes_o… No Hi… No High… Chol Che…    25 Yes    No     No                   Yes         
    ##  5 No_Diabetes No Hi… High Ch… Chol Che…    33 Yes    Yes    No                   Yes         
    ##  6 No_Diabetes High … No High… Chol Che…    33 No     No     No                   Yes         
    ##  7 No_Diabetes No Hi… No High… No Chol …    23 No     No     No                   No          
    ##  8 No_Diabetes No Hi… High Ch… Chol Che…    28 No     No     No                   No          
    ##  9 No_Diabetes No Hi… No High… Chol Che…    32 No     No     No                   Yes         
    ## 10 Diabetes_o… High … High Ch… Chol Che…    37 Yes    Yes    Yes                  No          
    ## # ℹ 107,315 more rows
    ## # ℹ 13 more variables: Fruits <fct>, Veggies <fct>, HvyAlcoholConsump <fct>,
    ## #   AnyHealthcare <fct>, NoDocbcCost <fct>, GenHlth <fct>, MentHlth <dbl>, PhysHlth <dbl>,
    ## #   DiffWalk <fct>, Sex <fct>, Age <fct>, Education <fct>, Income <fct>
…
